[
  {
    "id": 1,
    "name": "Estadio Juan Pasquale",
    "image": "https://i.postimg.cc/7h1jBCns/juanpasquale.jpg",
    "boost_percentage": 50,
    "games_played": 0,
    "games_won_as_local": 0
  },
  {
    "id": 2,
    "name": "Estadio Campeón del siglo",
    "image": "https://i.postimg.cc/Y9W5WDGw/campeon-del-siglo.jpg",
    "boost_percentage": 50,
    "games_played": 0,
    "games_won_as_local": 0
  },
  {
    "id": 3,
    "name": "Estadio La Bombonera",
    "image": "https://i.postimg.cc/QMwLVZMb/bombonera.jpg",
    "boost_percentage": 50,
    "games_played": 0,
    "games_won_as_local": 0
  },
  {
    "id": 4,
    "name": "Estadio Santiago Bernabéu",
    "image": "https://i.postimg.cc/qqH9Xcy6/santiago-bernabeu.jpg",
    "boost_percentage": 50,
    "games_played": 0,
    "games_won_as_local": 0
  }
]
