{
  "contractName": "ERC721Burnable",
  "abi": [
    {
      "anonymous": false,
      "inputs": [
        {
          "indexed": true,
          "internalType": "address",
          "name": "owner",
          "type": "address"
        },
        {
          "indexed": true,
          "internalType": "address",
          "name": "approved",
          "type": "address"
        },
        {
          "indexed": true,
          "internalType": "uint256",
          "name": "tokenId",
          "type": "uint256"
        }
      ],
      "name": "Approval",
      "type": "event"
    },
    {
      "anonymous": false,
      "inputs": [
        {
          "indexed": true,
          "internalType": "address",
          "name": "owner",
          "type": "address"
        },
        {
          "indexed": true,
          "internalType": "address",
          "name": "operator",
          "type": "address"
        },
        {
          "indexed": false,
          "internalType": "bool",
          "name": "approved",
          "type": "bool"
        }
      ],
      "name": "ApprovalForAll",
      "type": "event"
    },
    {
      "anonymous": false,
      "inputs": [
        {
          "indexed": true,
          "internalType": "address",
          "name": "from",
          "type": "address"
        },
        {
          "indexed": true,
          "internalType": "address",
          "name": "to",
          "type": "address"
        },
        {
          "indexed": true,
          "internalType": "uint256",
          "name": "tokenId",
          "type": "uint256"
        }
      ],
      "name": "Transfer",
      "type": "event"
    },
    {
      "inputs": [
        {
          "internalType": "address",
          "name": "to",
          "type": "address"
        },
        {
          "internalType": "uint256",
          "name": "tokenId",
          "type": "uint256"
        }
      ],
      "name": "approve",
      "outputs": [],
      "stateMutability": "nonpayable",
      "type": "function"
    },
    {
      "inputs": [
        {
          "internalType": "address",
          "name": "owner",
          "type": "address"
        }
      ],
      "name": "balanceOf",
      "outputs": [
        {
          "internalType": "uint256",
          "name": "",
          "type": "uint256"
        }
      ],
      "stateMutability": "view",
      "type": "function"
    },
    {
      "inputs": [
        {
          "internalType": "uint256",
          "name": "tokenId",
          "type": "uint256"
        }
      ],
      "name": "getApproved",
      "outputs": [
        {
          "internalType": "address",
          "name": "",
          "type": "address"
        }
      ],
      "stateMutability": "view",
      "type": "function"
    },
    {
      "inputs": [
        {
          "internalType": "address",
          "name": "owner",
          "type": "address"
        },
        {
          "internalType": "address",
          "name": "operator",
          "type": "address"
        }
      ],
      "name": "isApprovedForAll",
      "outputs": [
        {
          "internalType": "bool",
          "name": "",
          "type": "bool"
        }
      ],
      "stateMutability": "view",
      "type": "function"
    },
    {
      "inputs": [],
      "name": "name",
      "outputs": [
        {
          "internalType": "string",
          "name": "",
          "type": "string"
        }
      ],
      "stateMutability": "view",
      "type": "function"
    },
    {
      "inputs": [
        {
          "internalType": "uint256",
          "name": "tokenId",
          "type": "uint256"
        }
      ],
      "name": "ownerOf",
      "outputs": [
        {
          "internalType": "address",
          "name": "",
          "type": "address"
        }
      ],
      "stateMutability": "view",
      "type": "function"
    },
    {
      "inputs": [
        {
          "internalType": "address",
          "name": "from",
          "type": "address"
        },
        {
          "internalType": "address",
          "name": "to",
          "type": "address"
        },
        {
          "internalType": "uint256",
          "name": "tokenId",
          "type": "uint256"
        }
      ],
      "name": "safeTransferFrom",
      "outputs": [],
      "stateMutability": "nonpayable",
      "type": "function"
    },
    {
      "inputs": [
        {
          "internalType": "address",
          "name": "from",
          "type": "address"
        },
        {
          "internalType": "address",
          "name": "to",
          "type": "address"
        },
        {
          "internalType": "uint256",
          "name": "tokenId",
          "type": "uint256"
        },
        {
          "internalType": "bytes",
          "name": "_data",
          "type": "bytes"
        }
      ],
      "name": "safeTransferFrom",
      "outputs": [],
      "stateMutability": "nonpayable",
      "type": "function"
    },
    {
      "inputs": [
        {
          "internalType": "address",
          "name": "operator",
          "type": "address"
        },
        {
          "internalType": "bool",
          "name": "approved",
          "type": "bool"
        }
      ],
      "name": "setApprovalForAll",
      "outputs": [],
      "stateMutability": "nonpayable",
      "type": "function"
    },
    {
      "inputs": [
        {
          "internalType": "bytes4",
          "name": "interfaceId",
          "type": "bytes4"
        }
      ],
      "name": "supportsInterface",
      "outputs": [
        {
          "internalType": "bool",
          "name": "",
          "type": "bool"
        }
      ],
      "stateMutability": "view",
      "type": "function"
    },
    {
      "inputs": [],
      "name": "symbol",
      "outputs": [
        {
          "internalType": "string",
          "name": "",
          "type": "string"
        }
      ],
      "stateMutability": "view",
      "type": "function"
    },
    {
      "inputs": [
        {
          "internalType": "uint256",
          "name": "tokenId",
          "type": "uint256"
        }
      ],
      "name": "tokenURI",
      "outputs": [
        {
          "internalType": "string",
          "name": "",
          "type": "string"
        }
      ],
      "stateMutability": "view",
      "type": "function"
    },
    {
      "inputs": [
        {
          "internalType": "address",
          "name": "from",
          "type": "address"
        },
        {
          "internalType": "address",
          "name": "to",
          "type": "address"
        },
        {
          "internalType": "uint256",
          "name": "tokenId",
          "type": "uint256"
        }
      ],
      "name": "transferFrom",
      "outputs": [],
      "stateMutability": "nonpayable",
      "type": "function"
    },
    {
      "inputs": [
        {
          "internalType": "uint256",
          "name": "tokenId",
          "type": "uint256"
        }
      ],
      "name": "burn",
      "outputs": [],
      "stateMutability": "nonpayable",
      "type": "function"
    }
  ],
  "metadata": "{\"compiler\":{\"version\":\"0.8.10+commit.fc410830\"},\"language\":\"Solidity\",\"output\":{\"abi\":[{\"anonymous\":false,\"inputs\":[{\"indexed\":true,\"internalType\":\"address\",\"name\":\"owner\",\"type\":\"address\"},{\"indexed\":true,\"internalType\":\"address\",\"name\":\"approved\",\"type\":\"address\"},{\"indexed\":true,\"internalType\":\"uint256\",\"name\":\"tokenId\",\"type\":\"uint256\"}],\"name\":\"Approval\",\"type\":\"event\"},{\"anonymous\":false,\"inputs\":[{\"indexed\":true,\"internalType\":\"address\",\"name\":\"owner\",\"type\":\"address\"},{\"indexed\":true,\"internalType\":\"address\",\"name\":\"operator\",\"type\":\"address\"},{\"indexed\":false,\"internalType\":\"bool\",\"name\":\"approved\",\"type\":\"bool\"}],\"name\":\"ApprovalForAll\",\"type\":\"event\"},{\"anonymous\":false,\"inputs\":[{\"indexed\":true,\"internalType\":\"address\",\"name\":\"from\",\"type\":\"address\"},{\"indexed\":true,\"internalType\":\"address\",\"name\":\"to\",\"type\":\"address\"},{\"indexed\":true,\"internalType\":\"uint256\",\"name\":\"tokenId\",\"type\":\"uint256\"}],\"name\":\"Transfer\",\"type\":\"event\"},{\"inputs\":[{\"internalType\":\"address\",\"name\":\"to\",\"type\":\"address\"},{\"internalType\":\"uint256\",\"name\":\"tokenId\",\"type\":\"uint256\"}],\"name\":\"approve\",\"outputs\":[],\"stateMutability\":\"nonpayable\",\"type\":\"function\"},{\"inputs\":[{\"internalType\":\"address\",\"name\":\"owner\",\"type\":\"address\"}],\"name\":\"balanceOf\",\"outputs\":[{\"internalType\":\"uint256\",\"name\":\"\",\"type\":\"uint256\"}],\"stateMutability\":\"view\",\"type\":\"function\"},{\"inputs\":[{\"internalType\":\"uint256\",\"name\":\"tokenId\",\"type\":\"uint256\"}],\"name\":\"burn\",\"outputs\":[],\"stateMutability\":\"nonpayable\",\"type\":\"function\"},{\"inputs\":[{\"internalType\":\"uint256\",\"name\":\"tokenId\",\"type\":\"uint256\"}],\"name\":\"getApproved\",\"outputs\":[{\"internalType\":\"address\",\"name\":\"\",\"type\":\"address\"}],\"stateMutability\":\"view\",\"type\":\"function\"},{\"inputs\":[{\"internalType\":\"address\",\"name\":\"owner\",\"type\":\"address\"},{\"internalType\":\"address\",\"name\":\"operator\",\"type\":\"address\"}],\"name\":\"isApprovedForAll\",\"outputs\":[{\"internalType\":\"bool\",\"name\":\"\",\"type\":\"bool\"}],\"stateMutability\":\"view\",\"type\":\"function\"},{\"inputs\":[],\"name\":\"name\",\"outputs\":[{\"internalType\":\"string\",\"name\":\"\",\"type\":\"string\"}],\"stateMutability\":\"view\",\"type\":\"function\"},{\"inputs\":[{\"internalType\":\"uint256\",\"name\":\"tokenId\",\"type\":\"uint256\"}],\"name\":\"ownerOf\",\"outputs\":[{\"internalType\":\"address\",\"name\":\"\",\"type\":\"address\"}],\"stateMutability\":\"view\",\"type\":\"function\"},{\"inputs\":[{\"internalType\":\"address\",\"name\":\"from\",\"type\":\"address\"},{\"internalType\":\"address\",\"name\":\"to\",\"type\":\"address\"},{\"internalType\":\"uint256\",\"name\":\"tokenId\",\"type\":\"uint256\"}],\"name\":\"safeTransferFrom\",\"outputs\":[],\"stateMutability\":\"nonpayable\",\"type\":\"function\"},{\"inputs\":[{\"internalType\":\"address\",\"name\":\"from\",\"type\":\"address\"},{\"internalType\":\"address\",\"name\":\"to\",\"type\":\"address\"},{\"internalType\":\"uint256\",\"name\":\"tokenId\",\"type\":\"uint256\"},{\"internalType\":\"bytes\",\"name\":\"_data\",\"type\":\"bytes\"}],\"name\":\"safeTransferFrom\",\"outputs\":[],\"stateMutability\":\"nonpayable\",\"type\":\"function\"},{\"inputs\":[{\"internalType\":\"address\",\"name\":\"operator\",\"type\":\"address\"},{\"internalType\":\"bool\",\"name\":\"approved\",\"type\":\"bool\"}],\"name\":\"setApprovalForAll\",\"outputs\":[],\"stateMutability\":\"nonpayable\",\"type\":\"function\"},{\"inputs\":[{\"internalType\":\"bytes4\",\"name\":\"interfaceId\",\"type\":\"bytes4\"}],\"name\":\"supportsInterface\",\"outputs\":[{\"internalType\":\"bool\",\"name\":\"\",\"type\":\"bool\"}],\"stateMutability\":\"view\",\"type\":\"function\"},{\"inputs\":[],\"name\":\"symbol\",\"outputs\":[{\"internalType\":\"string\",\"name\":\"\",\"type\":\"string\"}],\"stateMutability\":\"view\",\"type\":\"function\"},{\"inputs\":[{\"internalType\":\"uint256\",\"name\":\"tokenId\",\"type\":\"uint256\"}],\"name\":\"tokenURI\",\"outputs\":[{\"internalType\":\"string\",\"name\":\"\",\"type\":\"string\"}],\"stateMutability\":\"view\",\"type\":\"function\"},{\"inputs\":[{\"internalType\":\"address\",\"name\":\"from\",\"type\":\"address\"},{\"internalType\":\"address\",\"name\":\"to\",\"type\":\"address\"},{\"internalType\":\"uint256\",\"name\":\"tokenId\",\"type\":\"uint256\"}],\"name\":\"transferFrom\",\"outputs\":[],\"stateMutability\":\"nonpayable\",\"type\":\"function\"}],\"devdoc\":{\"details\":\"ERC721 Token that can be irreversibly burned (destroyed).\",\"kind\":\"dev\",\"methods\":{\"approve(address,uint256)\":{\"details\":\"See {IERC721-approve}.\"},\"balanceOf(address)\":{\"details\":\"See {IERC721-balanceOf}.\"},\"burn(uint256)\":{\"details\":\"Burns `tokenId`. See {ERC721-_burn}. Requirements: - The caller must own `tokenId` or be an approved operator.\"},\"getApproved(uint256)\":{\"details\":\"See {IERC721-getApproved}.\"},\"isApprovedForAll(address,address)\":{\"details\":\"See {IERC721-isApprovedForAll}.\"},\"name()\":{\"details\":\"See {IERC721Metadata-name}.\"},\"ownerOf(uint256)\":{\"details\":\"See {IERC721-ownerOf}.\"},\"safeTransferFrom(address,address,uint256)\":{\"details\":\"See {IERC721-safeTransferFrom}.\"},\"safeTransferFrom(address,address,uint256,bytes)\":{\"details\":\"See {IERC721-safeTransferFrom}.\"},\"setApprovalForAll(address,bool)\":{\"details\":\"See {IERC721-setApprovalForAll}.\"},\"supportsInterface(bytes4)\":{\"details\":\"See {IERC165-supportsInterface}.\"},\"symbol()\":{\"details\":\"See {IERC721Metadata-symbol}.\"},\"tokenURI(uint256)\":{\"details\":\"See {IERC721Metadata-tokenURI}.\"},\"transferFrom(address,address,uint256)\":{\"details\":\"See {IERC721-transferFrom}.\"}},\"title\":\"ERC721 Burnable Token\",\"version\":1},\"userdoc\":{\"kind\":\"user\",\"methods\":{},\"version\":1}},\"settings\":{\"compilationTarget\":{\"@openzeppelin/contracts/token/ERC721/extensions/ERC721Burnable.sol\":\"ERC721Burnable\"},\"evmVersion\":\"london\",\"libraries\":{},\"metadata\":{\"bytecodeHash\":\"ipfs\"},\"optimizer\":{\"enabled\":false,\"runs\":200},\"remappings\":[]},\"sources\":{\"@openzeppelin/contracts/token/ERC721/ERC721.sol\":{\"keccak256\":\"0x7d2b8ba4b256bfcac347991b75242f9bc37f499c5236af50cf09d0b35943dc0c\",\"license\":\"MIT\",\"urls\":[\"bzz-raw://d8eeaf6afe00229af4c232ca058bb08b7a24cc3886f0b387159ac49ffd8b5312\",\"dweb:/ipfs/QmdnVKmDDWDvdRr6vtrxy3G6WafqA2TAhUZv1UFMsm4B4r\"]},\"@openzeppelin/contracts/token/ERC721/IERC721.sol\":{\"keccak256\":\"0xf101e8720213560fab41104d53b3cc7ba0456ef3a98455aa7f022391783144a0\",\"license\":\"MIT\",\"urls\":[\"bzz-raw://3e7820bcf567e6892d937c3cb10db263a4042e446799bca602535868d822384e\",\"dweb:/ipfs/QmPG2oeDjKncqsEeyYGjAN7CwAJmMgHterXGGnpzhha4z7\"]},\"@openzeppelin/contracts/token/ERC721/IERC721Receiver.sol\":{\"keccak256\":\"0xd9517254724276e2e8de3769183c1f738f445f0095c26fd9b86d3c6687e887b9\",\"license\":\"MIT\",\"urls\":[\"bzz-raw://0e604bcdcd5e5b2fb299ad09769cde6db19d5aa1929d1b5e939234a0f10d7eb8\",\"dweb:/ipfs/Qmd8hXE3GZfBHuWx3RNiYgFW2ci7KvHtib8DiwzJ2dgo9V\"]},\"@openzeppelin/contracts/token/ERC721/extensions/ERC721Burnable.sol\":{\"keccak256\":\"0x7481c284b0ff5983d3f1784f0ceae1ec397f8c8938bc60552b19889cc057aee8\",\"license\":\"MIT\",\"urls\":[\"bzz-raw://c834984a08e9fcb78657f3e6bc1209463581c4660fb7a0d7b785b1aec52490bc\",\"dweb:/ipfs/Qman8u5hNWrE34xNinnSgNqMXcsyPsHh5992b4G7iM2xFX\"]},\"@openzeppelin/contracts/token/ERC721/extensions/IERC721Metadata.sol\":{\"keccak256\":\"0xd32fb7f530a914b1083d10a6bed3a586f2451952fec04fe542bcc670a82f7ba5\",\"license\":\"MIT\",\"urls\":[\"bzz-raw://af63ab940a34687c45f0ad84960b048fc5f49330c92ccb422db7822a444733b9\",\"dweb:/ipfs/QmUShaQEu8HS1GjDnsMJQ8jkZEBrecn6NuDZ3pfjY1gVck\"]},\"@openzeppelin/contracts/utils/Address.sol\":{\"keccak256\":\"0x3336baae5cf23e94274d75336e2d412193be508504aee185e61dc7d58cd05c8a\",\"license\":\"MIT\",\"urls\":[\"bzz-raw://39a05eec7083dfa0cc7e0cbfe6cd1bd085a340af1ede93fdff3ad047c5fb3d8e\",\"dweb:/ipfs/QmVApz5fCUq2QC8gKTsNNdCmcedJ3ETHp68zR5N3WUKS4r\"]},\"@openzeppelin/contracts/utils/Context.sol\":{\"keccak256\":\"0x90565a39ae45c80f0468dc96c7b20d0afc3055f344c8203a0c9258239f350b9f\",\"license\":\"MIT\",\"urls\":[\"bzz-raw://26e8b38a7ac8e7b4463af00cf7fff1bf48ae9875765bf4f7751e100124d0bc8c\",\"dweb:/ipfs/QmWcsmkVr24xmmjfnBQZoemFniXjj3vwT78Cz6uqZW1Hux\"]},\"@openzeppelin/contracts/utils/Strings.sol\":{\"keccak256\":\"0x391d3ba97ab6856a16b225d6ee29617ad15ff00db70f3b4df1ab5ea33aa47c9d\",\"license\":\"MIT\",\"urls\":[\"bzz-raw://d636ba90bbbeed04a1ea7fe9ec2466757e30fd38ba2ca173636dbf69a518735e\",\"dweb:/ipfs/QmQwCB2BHnEuYR22PYt9HkpbgeFDhq4rHmaYqAZbX3WRC7\"]},\"@openzeppelin/contracts/utils/introspection/ERC165.sol\":{\"keccak256\":\"0x5718c5df9bd67ac68a796961df938821bb5dc0cd4c6118d77e9145afb187409b\",\"license\":\"MIT\",\"urls\":[\"bzz-raw://d10e1d9b26042424789246603906ad06143bf9a928f4e99de8b5e3bdc662f549\",\"dweb:/ipfs/Qmejonoaj5MLekPus229rJQHcC6E9dz2xorjHJR84fMfmn\"]},\"@openzeppelin/contracts/utils/introspection/IERC165.sol\":{\"keccak256\":\"0xa28007762d9da9db878dd421960c8cb9a10471f47ab5c1b3309bfe48e9e79ff4\",\"license\":\"MIT\",\"urls\":[\"bzz-raw://796ab6e88af7bf0e78def0f059310c903af6a312b565344e0ff524a0f26e81c6\",\"dweb:/ipfs/QmcsVgLgzWdor3UnAztUkXKNGcysm1MPneWksF72AvnwBx\"]}},\"version\":1}",
  "bytecode": "0x",
  "deployedBytecode": "0x",
  "immutableReferences": {},
  "generatedSources": [],
  "deployedGeneratedSources": [],
  "sourceMap": "",
  "deployedSourceMap": "",
  "source": "// SPDX-License-Identifier: MIT\n\npragma solidity ^0.8.0;\n\nimport \"../ERC721.sol\";\nimport \"../../../utils/Context.sol\";\n\n/**\n * @title ERC721 Burnable Token\n * @dev ERC721 Token that can be irreversibly burned (destroyed).\n */\nabstract contract ERC721Burnable is Context, ERC721 {\n    /**\n     * @dev Burns `tokenId`. See {ERC721-_burn}.\n     *\n     * Requirements:\n     *\n     * - The caller must own `tokenId` or be an approved operator.\n     */\n    function burn(uint256 tokenId) public virtual {\n        //solhint-disable-next-line max-line-length\n        require(_isApprovedOrOwner(_msgSender(), tokenId), \"ERC721Burnable: caller is not owner nor approved\");\n        _burn(tokenId);\n    }\n}\n",
  "sourcePath": "@openzeppelin\\contracts\\token\\ERC721\\extensions\\ERC721Burnable.sol",
  "ast": {
    "absolutePath": "@openzeppelin/contracts/token/ERC721/extensions/ERC721Burnable.sol",
    "exportedSymbols": {
      "Address": [
        2489
      ],
      "Context": [
        2511
      ],
      "ERC165": [
        2812
      ],
      "ERC721": [
        1595
      ],
      "ERC721Burnable": [
        1759
      ],
      "IERC165": [
        2824
      ],
      "IERC721": [
        1711
      ],
      "IERC721Metadata": [
        2192
      ],
      "IERC721Receiver": [
        1729
      ],
      "Strings": [
        2788
      ]
    },
    "id": 1760,
    "license": "MIT",
    "nodeType": "SourceUnit",
    "nodes": [
      {
        "id": 1731,
        "literals": [
          "solidity",
          "^",
          "0.8",
          ".0"
        ],
        "nodeType": "PragmaDirective",
        "src": "33:23:9"
      },
      {
        "absolutePath": "@openzeppelin/contracts/token/ERC721/ERC721.sol",
        "file": "../ERC721.sol",
        "id": 1732,
        "nameLocation": "-1:-1:-1",
        "nodeType": "ImportDirective",
        "scope": 1760,
        "sourceUnit": 1596,
        "src": "58:23:9",
        "symbolAliases": [],
        "unitAlias": ""
      },
      {
        "absolutePath": "@openzeppelin/contracts/utils/Context.sol",
        "file": "../../../utils/Context.sol",
        "id": 1733,
        "nameLocation": "-1:-1:-1",
        "nodeType": "ImportDirective",
        "scope": 1760,
        "sourceUnit": 2512,
        "src": "82:36:9",
        "symbolAliases": [],
        "unitAlias": ""
      },
      {
        "abstract": true,
        "baseContracts": [
          {
            "baseName": {
              "id": 1735,
              "name": "Context",
              "nodeType": "IdentifierPath",
              "referencedDeclaration": 2511,
              "src": "262:7:9"
            },
            "id": 1736,
            "nodeType": "InheritanceSpecifier",
            "src": "262:7:9"
          },
          {
            "baseName": {
              "id": 1737,
              "name": "ERC721",
              "nodeType": "IdentifierPath",
              "referencedDeclaration": 1595,
              "src": "271:6:9"
            },
            "id": 1738,
            "nodeType": "InheritanceSpecifier",
            "src": "271:6:9"
          }
        ],
        "canonicalName": "ERC721Burnable",
        "contractDependencies": [],
        "contractKind": "contract",
        "documentation": {
          "id": 1734,
          "nodeType": "StructuredDocumentation",
          "src": "120:105:9",
          "text": " @title ERC721 Burnable Token\n @dev ERC721 Token that can be irreversibly burned (destroyed)."
        },
        "fullyImplemented": false,
        "id": 1759,
        "linearizedBaseContracts": [
          1759,
          1595,
          2192,
          1711,
          2812,
          2824,
          2511
        ],
        "name": "ERC721Burnable",
        "nameLocation": "244:14:9",
        "nodeType": "ContractDefinition",
        "nodes": [
          {
            "body": {
              "id": 1757,
              "nodeType": "Block",
              "src": "497:195:9",
              "statements": [
                {
                  "expression": {
                    "arguments": [
                      {
                        "arguments": [
                          {
                            "arguments": [],
                            "expression": {
                              "argumentTypes": [],
                              "id": 1746,
                              "name": "_msgSender",
                              "nodeType": "Identifier",
                              "overloadedDeclarations": [],
                              "referencedDeclaration": 2501,
                              "src": "586:10:9",
                              "typeDescriptions": {
                                "typeIdentifier": "t_function_internal_view$__$returns$_t_address_$",
                                "typeString": "function () view returns (address)"
                              }
                            },
                            "id": 1747,
                            "isConstant": false,
                            "isLValue": false,
                            "isPure": false,
                            "kind": "functionCall",
                            "lValueRequested": false,
                            "names": [],
                            "nodeType": "FunctionCall",
                            "src": "586:12:9",
                            "tryCall": false,
                            "typeDescriptions": {
                              "typeIdentifier": "t_address",
                              "typeString": "address"
                            }
                          },
                          {
                            "id": 1748,
                            "name": "tokenId",
                            "nodeType": "Identifier",
                            "overloadedDeclarations": [],
                            "referencedDeclaration": 1741,
                            "src": "600:7:9",
                            "typeDescriptions": {
                              "typeIdentifier": "t_uint256",
                              "typeString": "uint256"
                            }
                          }
                        ],
                        "expression": {
                          "argumentTypes": [
                            {
                              "typeIdentifier": "t_address",
                              "typeString": "address"
                            },
                            {
                              "typeIdentifier": "t_uint256",
                              "typeString": "uint256"
                            }
                          ],
                          "id": 1745,
                          "name": "_isApprovedOrOwner",
                          "nodeType": "Identifier",
                          "overloadedDeclarations": [],
                          "referencedDeclaration": 1276,
                          "src": "567:18:9",
                          "typeDescriptions": {
                            "typeIdentifier": "t_function_internal_view$_t_address_$_t_uint256_$returns$_t_bool_$",
                            "typeString": "function (address,uint256) view returns (bool)"
                          }
                        },
                        "id": 1749,
                        "isConstant": false,
                        "isLValue": false,
                        "isPure": false,
                        "kind": "functionCall",
                        "lValueRequested": false,
                        "names": [],
                        "nodeType": "FunctionCall",
                        "src": "567:41:9",
                        "tryCall": false,
                        "typeDescriptions": {
                          "typeIdentifier": "t_bool",
                          "typeString": "bool"
                        }
                      },
                      {
                        "hexValue": "4552433732314275726e61626c653a2063616c6c6572206973206e6f74206f776e6572206e6f7220617070726f766564",
                        "id": 1750,
                        "isConstant": false,
                        "isLValue": false,
                        "isPure": true,
                        "kind": "string",
                        "lValueRequested": false,
                        "nodeType": "Literal",
                        "src": "610:50:9",
                        "typeDescriptions": {
                          "typeIdentifier": "t_stringliteral_ee6b7e810d7b317242d4688e6943ff4dd7897bb01d903b1a666812481b12a4f1",
                          "typeString": "literal_string \"ERC721Burnable: caller is not owner nor approved\""
                        },
                        "value": "ERC721Burnable: caller is not owner nor approved"
                      }
                    ],
                    "expression": {
                      "argumentTypes": [
                        {
                          "typeIdentifier": "t_bool",
                          "typeString": "bool"
                        },
                        {
                          "typeIdentifier": "t_stringliteral_ee6b7e810d7b317242d4688e6943ff4dd7897bb01d903b1a666812481b12a4f1",
                          "typeString": "literal_string \"ERC721Burnable: caller is not owner nor approved\""
                        }
                      ],
                      "id": 1744,
                      "name": "require",
                      "nodeType": "Identifier",
                      "overloadedDeclarations": [
                        4294967278,
                        4294967278
                      ],
                      "referencedDeclaration": 4294967278,
                      "src": "559:7:9",
                      "typeDescriptions": {
                        "typeIdentifier": "t_function_require_pure$_t_bool_$_t_string_memory_ptr_$returns$__$",
                        "typeString": "function (bool,string memory) pure"
                      }
                    },
                    "id": 1751,
                    "isConstant": false,
                    "isLValue": false,
                    "isPure": false,
                    "kind": "functionCall",
                    "lValueRequested": false,
                    "names": [],
                    "nodeType": "FunctionCall",
                    "src": "559:102:9",
                    "tryCall": false,
                    "typeDescriptions": {
                      "typeIdentifier": "t_tuple$__$",
                      "typeString": "tuple()"
                    }
                  },
                  "id": 1752,
                  "nodeType": "ExpressionStatement",
                  "src": "559:102:9"
                },
                {
                  "expression": {
                    "arguments": [
                      {
                        "id": 1754,
                        "name": "tokenId",
                        "nodeType": "Identifier",
                        "overloadedDeclarations": [],
                        "referencedDeclaration": 1741,
                        "src": "677:7:9",
                        "typeDescriptions": {
                          "typeIdentifier": "t_uint256",
                          "typeString": "uint256"
                        }
                      }
                    ],
                    "expression": {
                      "argumentTypes": [
                        {
                          "typeIdentifier": "t_uint256",
                          "typeString": "uint256"
                        }
                      ],
                      "id": 1753,
                      "name": "_burn",
                      "nodeType": "Identifier",
                      "overloadedDeclarations": [],
                      "referencedDeclaration": 1428,
                      "src": "671:5:9",
                      "typeDescriptions": {
                        "typeIdentifier": "t_function_internal_nonpayable$_t_uint256_$returns$__$",
                        "typeString": "function (uint256)"
                      }
                    },
                    "id": 1755,
                    "isConstant": false,
                    "isLValue": false,
                    "isPure": false,
                    "kind": "functionCall",
                    "lValueRequested": false,
                    "names": [],
                    "nodeType": "FunctionCall",
                    "src": "671:14:9",
                    "tryCall": false,
                    "typeDescriptions": {
                      "typeIdentifier": "t_tuple$__$",
                      "typeString": "tuple()"
                    }
                  },
                  "id": 1756,
                  "nodeType": "ExpressionStatement",
                  "src": "671:14:9"
                }
              ]
            },
            "documentation": {
              "id": 1739,
              "nodeType": "StructuredDocumentation",
              "src": "284:162:9",
              "text": " @dev Burns `tokenId`. See {ERC721-_burn}.\n Requirements:\n - The caller must own `tokenId` or be an approved operator."
            },
            "functionSelector": "42966c68",
            "id": 1758,
            "implemented": true,
            "kind": "function",
            "modifiers": [],
            "name": "burn",
            "nameLocation": "460:4:9",
            "nodeType": "FunctionDefinition",
            "parameters": {
              "id": 1742,
              "nodeType": "ParameterList",
              "parameters": [
                {
                  "constant": false,
                  "id": 1741,
                  "mutability": "mutable",
                  "name": "tokenId",
                  "nameLocation": "473:7:9",
                  "nodeType": "VariableDeclaration",
                  "scope": 1758,
                  "src": "465:15:9",
                  "stateVariable": false,
                  "storageLocation": "default",
                  "typeDescriptions": {
                    "typeIdentifier": "t_uint256",
                    "typeString": "uint256"
                  },
                  "typeName": {
                    "id": 1740,
                    "name": "uint256",
                    "nodeType": "ElementaryTypeName",
                    "src": "465:7:9",
                    "typeDescriptions": {
                      "typeIdentifier": "t_uint256",
                      "typeString": "uint256"
                    }
                  },
                  "visibility": "internal"
                }
              ],
              "src": "464:17:9"
            },
            "returnParameters": {
              "id": 1743,
              "nodeType": "ParameterList",
              "parameters": [],
              "src": "497:0:9"
            },
            "scope": 1759,
            "src": "451:241:9",
            "stateMutability": "nonpayable",
            "virtual": true,
            "visibility": "public"
          }
        ],
        "scope": 1760,
        "src": "226:468:9",
        "usedErrors": []
      }
    ],
    "src": "33:662:9"
  },
  "legacyAST": {
    "absolutePath": "@openzeppelin/contracts/token/ERC721/extensions/ERC721Burnable.sol",
    "exportedSymbols": {
      "Address": [
        2489
      ],
      "Context": [
        2511
      ],
      "ERC165": [
        2812
      ],
      "ERC721": [
        1595
      ],
      "ERC721Burnable": [
        1759
      ],
      "IERC165": [
        2824
      ],
      "IERC721": [
        1711
      ],
      "IERC721Metadata": [
        2192
      ],
      "IERC721Receiver": [
        1729
      ],
      "Strings": [
        2788
      ]
    },
    "id": 1760,
    "license": "MIT",
    "nodeType": "SourceUnit",
    "nodes": [
      {
        "id": 1731,
        "literals": [
          "solidity",
          "^",
          "0.8",
          ".0"
        ],
        "nodeType": "PragmaDirective",
        "src": "33:23:9"
      },
      {
        "absolutePath": "@openzeppelin/contracts/token/ERC721/ERC721.sol",
        "file": "../ERC721.sol",
        "id": 1732,
        "nameLocation": "-1:-1:-1",
        "nodeType": "ImportDirective",
        "scope": 1760,
        "sourceUnit": 1596,
        "src": "58:23:9",
        "symbolAliases": [],
        "unitAlias": ""
      },
      {
        "absolutePath": "@openzeppelin/contracts/utils/Context.sol",
        "file": "../../../utils/Context.sol",
        "id": 1733,
        "nameLocation": "-1:-1:-1",
        "nodeType": "ImportDirective",
        "scope": 1760,
        "sourceUnit": 2512,
        "src": "82:36:9",
        "symbolAliases": [],
        "unitAlias": ""
      },
      {
        "abstract": true,
        "baseContracts": [
          {
            "baseName": {
              "id": 1735,
              "name": "Context",
              "nodeType": "IdentifierPath",
              "referencedDeclaration": 2511,
              "src": "262:7:9"
            },
            "id": 1736,
            "nodeType": "InheritanceSpecifier",
            "src": "262:7:9"
          },
          {
            "baseName": {
              "id": 1737,
              "name": "ERC721",
              "nodeType": "IdentifierPath",
              "referencedDeclaration": 1595,
              "src": "271:6:9"
            },
            "id": 1738,
            "nodeType": "InheritanceSpecifier",
            "src": "271:6:9"
          }
        ],
        "canonicalName": "ERC721Burnable",
        "contractDependencies": [],
        "contractKind": "contract",
        "documentation": {
          "id": 1734,
          "nodeType": "StructuredDocumentation",
          "src": "120:105:9",
          "text": " @title ERC721 Burnable Token\n @dev ERC721 Token that can be irreversibly burned (destroyed)."
        },
        "fullyImplemented": false,
        "id": 1759,
        "linearizedBaseContracts": [
          1759,
          1595,
          2192,
          1711,
          2812,
          2824,
          2511
        ],
        "name": "ERC721Burnable",
        "nameLocation": "244:14:9",
        "nodeType": "ContractDefinition",
        "nodes": [
          {
            "body": {
              "id": 1757,
              "nodeType": "Block",
              "src": "497:195:9",
              "statements": [
                {
                  "expression": {
                    "arguments": [
                      {
                        "arguments": [
                          {
                            "arguments": [],
                            "expression": {
                              "argumentTypes": [],
                              "id": 1746,
                              "name": "_msgSender",
                              "nodeType": "Identifier",
                              "overloadedDeclarations": [],
                              "referencedDeclaration": 2501,
                              "src": "586:10:9",
                              "typeDescriptions": {
                                "typeIdentifier": "t_function_internal_view$__$returns$_t_address_$",
                                "typeString": "function () view returns (address)"
                              }
                            },
                            "id": 1747,
                            "isConstant": false,
                            "isLValue": false,
                            "isPure": false,
                            "kind": "functionCall",
                            "lValueRequested": false,
                            "names": [],
                            "nodeType": "FunctionCall",
                            "src": "586:12:9",
                            "tryCall": false,
                            "typeDescriptions": {
                              "typeIdentifier": "t_address",
                              "typeString": "address"
                            }
                          },
                          {
                            "id": 1748,
                            "name": "tokenId",
                            "nodeType": "Identifier",
                            "overloadedDeclarations": [],
                            "referencedDeclaration": 1741,
                            "src": "600:7:9",
                            "typeDescriptions": {
                              "typeIdentifier": "t_uint256",
                              "typeString": "uint256"
                            }
                          }
                        ],
                        "expression": {
                          "argumentTypes": [
                            {
                              "typeIdentifier": "t_address",
                              "typeString": "address"
                            },
                            {
                              "typeIdentifier": "t_uint256",
                              "typeString": "uint256"
                            }
                          ],
                          "id": 1745,
                          "name": "_isApprovedOrOwner",
                          "nodeType": "Identifier",
                          "overloadedDeclarations": [],
                          "referencedDeclaration": 1276,
                          "src": "567:18:9",
                          "typeDescriptions": {
                            "typeIdentifier": "t_function_internal_view$_t_address_$_t_uint256_$returns$_t_bool_$",
                            "typeString": "function (address,uint256) view returns (bool)"
                          }
                        },
                        "id": 1749,
                        "isConstant": false,
                        "isLValue": false,
                        "isPure": false,
                        "kind": "functionCall",
                        "lValueRequested": false,
                        "names": [],
                        "nodeType": "FunctionCall",
                        "src": "567:41:9",
                        "tryCall": false,
                        "typeDescriptions": {
                          "typeIdentifier": "t_bool",
                          "typeString": "bool"
                        }
                      },
                      {
                        "hexValue": "4552433732314275726e61626c653a2063616c6c6572206973206e6f74206f776e6572206e6f7220617070726f766564",
                        "id": 1750,
                        "isConstant": false,
                        "isLValue": false,
                        "isPure": true,
                        "kind": "string",
                        "lValueRequested": false,
                        "nodeType": "Literal",
                        "src": "610:50:9",
                        "typeDescriptions": {
                          "typeIdentifier": "t_stringliteral_ee6b7e810d7b317242d4688e6943ff4dd7897bb01d903b1a666812481b12a4f1",
                          "typeString": "literal_string \"ERC721Burnable: caller is not owner nor approved\""
                        },
                        "value": "ERC721Burnable: caller is not owner nor approved"
                      }
                    ],
                    "expression": {
                      "argumentTypes": [
                        {
                          "typeIdentifier": "t_bool",
                          "typeString": "bool"
                        },
                        {
                          "typeIdentifier": "t_stringliteral_ee6b7e810d7b317242d4688e6943ff4dd7897bb01d903b1a666812481b12a4f1",
                          "typeString": "literal_string \"ERC721Burnable: caller is not owner nor approved\""
                        }
                      ],
                      "id": 1744,
                      "name": "require",
                      "nodeType": "Identifier",
                      "overloadedDeclarations": [
                        4294967278,
                        4294967278
                      ],
                      "referencedDeclaration": 4294967278,
                      "src": "559:7:9",
                      "typeDescriptions": {
                        "typeIdentifier": "t_function_require_pure$_t_bool_$_t_string_memory_ptr_$returns$__$",
                        "typeString": "function (bool,string memory) pure"
                      }
                    },
                    "id": 1751,
                    "isConstant": false,
                    "isLValue": false,
                    "isPure": false,
                    "kind": "functionCall",
                    "lValueRequested": false,
                    "names": [],
                    "nodeType": "FunctionCall",
                    "src": "559:102:9",
                    "tryCall": false,
                    "typeDescriptions": {
                      "typeIdentifier": "t_tuple$__$",
                      "typeString": "tuple()"
                    }
                  },
                  "id": 1752,
                  "nodeType": "ExpressionStatement",
                  "src": "559:102:9"
                },
                {
                  "expression": {
                    "arguments": [
                      {
                        "id": 1754,
                        "name": "tokenId",
                        "nodeType": "Identifier",
                        "overloadedDeclarations": [],
                        "referencedDeclaration": 1741,
                        "src": "677:7:9",
                        "typeDescriptions": {
                          "typeIdentifier": "t_uint256",
                          "typeString": "uint256"
                        }
                      }
                    ],
                    "expression": {
                      "argumentTypes": [
                        {
                          "typeIdentifier": "t_uint256",
                          "typeString": "uint256"
                        }
                      ],
                      "id": 1753,
                      "name": "_burn",
                      "nodeType": "Identifier",
                      "overloadedDeclarations": [],
                      "referencedDeclaration": 1428,
                      "src": "671:5:9",
                      "typeDescriptions": {
                        "typeIdentifier": "t_function_internal_nonpayable$_t_uint256_$returns$__$",
                        "typeString": "function (uint256)"
                      }
                    },
                    "id": 1755,
                    "isConstant": false,
                    "isLValue": false,
                    "isPure": false,
                    "kind": "functionCall",
                    "lValueRequested": false,
                    "names": [],
                    "nodeType": "FunctionCall",
                    "src": "671:14:9",
                    "tryCall": false,
                    "typeDescriptions": {
                      "typeIdentifier": "t_tuple$__$",
                      "typeString": "tuple()"
                    }
                  },
                  "id": 1756,
                  "nodeType": "ExpressionStatement",
                  "src": "671:14:9"
                }
              ]
            },
            "documentation": {
              "id": 1739,
              "nodeType": "StructuredDocumentation",
              "src": "284:162:9",
              "text": " @dev Burns `tokenId`. See {ERC721-_burn}.\n Requirements:\n - The caller must own `tokenId` or be an approved operator."
            },
            "functionSelector": "42966c68",
            "id": 1758,
            "implemented": true,
            "kind": "function",
            "modifiers": [],
            "name": "burn",
            "nameLocation": "460:4:9",
            "nodeType": "FunctionDefinition",
            "parameters": {
              "id": 1742,
              "nodeType": "ParameterList",
              "parameters": [
                {
                  "constant": false,
                  "id": 1741,
                  "mutability": "mutable",
                  "name": "tokenId",
                  "nameLocation": "473:7:9",
                  "nodeType": "VariableDeclaration",
                  "scope": 1758,
                  "src": "465:15:9",
                  "stateVariable": false,
                  "storageLocation": "default",
                  "typeDescriptions": {
                    "typeIdentifier": "t_uint256",
                    "typeString": "uint256"
                  },
                  "typeName": {
                    "id": 1740,
                    "name": "uint256",
                    "nodeType": "ElementaryTypeName",
                    "src": "465:7:9",
                    "typeDescriptions": {
                      "typeIdentifier": "t_uint256",
                      "typeString": "uint256"
                    }
                  },
                  "visibility": "internal"
                }
              ],
              "src": "464:17:9"
            },
            "returnParameters": {
              "id": 1743,
              "nodeType": "ParameterList",
              "parameters": [],
              "src": "497:0:9"
            },
            "scope": 1759,
            "src": "451:241:9",
            "stateMutability": "nonpayable",
            "virtual": true,
            "visibility": "public"
          }
        ],
        "scope": 1760,
        "src": "226:468:9",
        "usedErrors": []
      }
    ],
    "src": "33:662:9"
  },
  "compiler": {
    "name": "solc",
    "version": "0.8.10+commit.fc410830.Emscripten.clang"
  },
  "networks": {},
  "schemaVersion": "3.4.3",
  "updatedAt": "2021-11-26T00:42:38.424Z",
  "devdoc": {
    "details": "ERC721 Token that can be irreversibly burned (destroyed).",
    "kind": "dev",
    "methods": {
      "approve(address,uint256)": {
        "details": "See {IERC721-approve}."
      },
      "balanceOf(address)": {
        "details": "See {IERC721-balanceOf}."
      },
      "burn(uint256)": {
        "details": "Burns `tokenId`. See {ERC721-_burn}. Requirements: - The caller must own `tokenId` or be an approved operator."
      },
      "getApproved(uint256)": {
        "details": "See {IERC721-getApproved}."
      },
      "isApprovedForAll(address,address)": {
        "details": "See {IERC721-isApprovedForAll}."
      },
      "name()": {
        "details": "See {IERC721Metadata-name}."
      },
      "ownerOf(uint256)": {
        "details": "See {IERC721-ownerOf}."
      },
      "safeTransferFrom(address,address,uint256)": {
        "details": "See {IERC721-safeTransferFrom}."
      },
      "safeTransferFrom(address,address,uint256,bytes)": {
        "details": "See {IERC721-safeTransferFrom}."
      },
      "setApprovalForAll(address,bool)": {
        "details": "See {IERC721-setApprovalForAll}."
      },
      "supportsInterface(bytes4)": {
        "details": "See {IERC165-supportsInterface}."
      },
      "symbol()": {
        "details": "See {IERC721Metadata-symbol}."
      },
      "tokenURI(uint256)": {
        "details": "See {IERC721Metadata-tokenURI}."
      },
      "transferFrom(address,address,uint256)": {
        "details": "See {IERC721-transferFrom}."
      }
    },
    "title": "ERC721 Burnable Token",
    "version": 1
  },
  "userdoc": {
    "kind": "user",
    "methods": {},
    "version": 1
  }
}