{
  "contractName": "IERC721Metadata",
  "abi": [
    {
      "anonymous": false,
      "inputs": [
        {
          "indexed": true,
          "internalType": "address",
          "name": "owner",
          "type": "address"
        },
        {
          "indexed": true,
          "internalType": "address",
          "name": "approved",
          "type": "address"
        },
        {
          "indexed": true,
          "internalType": "uint256",
          "name": "tokenId",
          "type": "uint256"
        }
      ],
      "name": "Approval",
      "type": "event"
    },
    {
      "anonymous": false,
      "inputs": [
        {
          "indexed": true,
          "internalType": "address",
          "name": "owner",
          "type": "address"
        },
        {
          "indexed": true,
          "internalType": "address",
          "name": "operator",
          "type": "address"
        },
        {
          "indexed": false,
          "internalType": "bool",
          "name": "approved",
          "type": "bool"
        }
      ],
      "name": "ApprovalForAll",
      "type": "event"
    },
    {
      "anonymous": false,
      "inputs": [
        {
          "indexed": true,
          "internalType": "address",
          "name": "from",
          "type": "address"
        },
        {
          "indexed": true,
          "internalType": "address",
          "name": "to",
          "type": "address"
        },
        {
          "indexed": true,
          "internalType": "uint256",
          "name": "tokenId",
          "type": "uint256"
        }
      ],
      "name": "Transfer",
      "type": "event"
    },
    {
      "inputs": [
        {
          "internalType": "address",
          "name": "to",
          "type": "address"
        },
        {
          "internalType": "uint256",
          "name": "tokenId",
          "type": "uint256"
        }
      ],
      "name": "approve",
      "outputs": [],
      "stateMutability": "nonpayable",
      "type": "function"
    },
    {
      "inputs": [
        {
          "internalType": "address",
          "name": "owner",
          "type": "address"
        }
      ],
      "name": "balanceOf",
      "outputs": [
        {
          "internalType": "uint256",
          "name": "balance",
          "type": "uint256"
        }
      ],
      "stateMutability": "view",
      "type": "function"
    },
    {
      "inputs": [
        {
          "internalType": "uint256",
          "name": "tokenId",
          "type": "uint256"
        }
      ],
      "name": "getApproved",
      "outputs": [
        {
          "internalType": "address",
          "name": "operator",
          "type": "address"
        }
      ],
      "stateMutability": "view",
      "type": "function"
    },
    {
      "inputs": [
        {
          "internalType": "address",
          "name": "owner",
          "type": "address"
        },
        {
          "internalType": "address",
          "name": "operator",
          "type": "address"
        }
      ],
      "name": "isApprovedForAll",
      "outputs": [
        {
          "internalType": "bool",
          "name": "",
          "type": "bool"
        }
      ],
      "stateMutability": "view",
      "type": "function"
    },
    {
      "inputs": [
        {
          "internalType": "uint256",
          "name": "tokenId",
          "type": "uint256"
        }
      ],
      "name": "ownerOf",
      "outputs": [
        {
          "internalType": "address",
          "name": "owner",
          "type": "address"
        }
      ],
      "stateMutability": "view",
      "type": "function"
    },
    {
      "inputs": [
        {
          "internalType": "address",
          "name": "from",
          "type": "address"
        },
        {
          "internalType": "address",
          "name": "to",
          "type": "address"
        },
        {
          "internalType": "uint256",
          "name": "tokenId",
          "type": "uint256"
        }
      ],
      "name": "safeTransferFrom",
      "outputs": [],
      "stateMutability": "nonpayable",
      "type": "function"
    },
    {
      "inputs": [
        {
          "internalType": "address",
          "name": "from",
          "type": "address"
        },
        {
          "internalType": "address",
          "name": "to",
          "type": "address"
        },
        {
          "internalType": "uint256",
          "name": "tokenId",
          "type": "uint256"
        },
        {
          "internalType": "bytes",
          "name": "data",
          "type": "bytes"
        }
      ],
      "name": "safeTransferFrom",
      "outputs": [],
      "stateMutability": "nonpayable",
      "type": "function"
    },
    {
      "inputs": [
        {
          "internalType": "address",
          "name": "operator",
          "type": "address"
        },
        {
          "internalType": "bool",
          "name": "_approved",
          "type": "bool"
        }
      ],
      "name": "setApprovalForAll",
      "outputs": [],
      "stateMutability": "nonpayable",
      "type": "function"
    },
    {
      "inputs": [
        {
          "internalType": "bytes4",
          "name": "interfaceId",
          "type": "bytes4"
        }
      ],
      "name": "supportsInterface",
      "outputs": [
        {
          "internalType": "bool",
          "name": "",
          "type": "bool"
        }
      ],
      "stateMutability": "view",
      "type": "function"
    },
    {
      "inputs": [
        {
          "internalType": "address",
          "name": "from",
          "type": "address"
        },
        {
          "internalType": "address",
          "name": "to",
          "type": "address"
        },
        {
          "internalType": "uint256",
          "name": "tokenId",
          "type": "uint256"
        }
      ],
      "name": "transferFrom",
      "outputs": [],
      "stateMutability": "nonpayable",
      "type": "function"
    },
    {
      "inputs": [],
      "name": "name",
      "outputs": [
        {
          "internalType": "string",
          "name": "",
          "type": "string"
        }
      ],
      "stateMutability": "view",
      "type": "function"
    },
    {
      "inputs": [],
      "name": "symbol",
      "outputs": [
        {
          "internalType": "string",
          "name": "",
          "type": "string"
        }
      ],
      "stateMutability": "view",
      "type": "function"
    },
    {
      "inputs": [
        {
          "internalType": "uint256",
          "name": "tokenId",
          "type": "uint256"
        }
      ],
      "name": "tokenURI",
      "outputs": [
        {
          "internalType": "string",
          "name": "",
          "type": "string"
        }
      ],
      "stateMutability": "view",
      "type": "function"
    }
  ],
  "metadata": "{\"compiler\":{\"version\":\"0.8.10+commit.fc410830\"},\"language\":\"Solidity\",\"output\":{\"abi\":[{\"anonymous\":false,\"inputs\":[{\"indexed\":true,\"internalType\":\"address\",\"name\":\"owner\",\"type\":\"address\"},{\"indexed\":true,\"internalType\":\"address\",\"name\":\"approved\",\"type\":\"address\"},{\"indexed\":true,\"internalType\":\"uint256\",\"name\":\"tokenId\",\"type\":\"uint256\"}],\"name\":\"Approval\",\"type\":\"event\"},{\"anonymous\":false,\"inputs\":[{\"indexed\":true,\"internalType\":\"address\",\"name\":\"owner\",\"type\":\"address\"},{\"indexed\":true,\"internalType\":\"address\",\"name\":\"operator\",\"type\":\"address\"},{\"indexed\":false,\"internalType\":\"bool\",\"name\":\"approved\",\"type\":\"bool\"}],\"name\":\"ApprovalForAll\",\"type\":\"event\"},{\"anonymous\":false,\"inputs\":[{\"indexed\":true,\"internalType\":\"address\",\"name\":\"from\",\"type\":\"address\"},{\"indexed\":true,\"internalType\":\"address\",\"name\":\"to\",\"type\":\"address\"},{\"indexed\":true,\"internalType\":\"uint256\",\"name\":\"tokenId\",\"type\":\"uint256\"}],\"name\":\"Transfer\",\"type\":\"event\"},{\"inputs\":[{\"internalType\":\"address\",\"name\":\"to\",\"type\":\"address\"},{\"internalType\":\"uint256\",\"name\":\"tokenId\",\"type\":\"uint256\"}],\"name\":\"approve\",\"outputs\":[],\"stateMutability\":\"nonpayable\",\"type\":\"function\"},{\"inputs\":[{\"internalType\":\"address\",\"name\":\"owner\",\"type\":\"address\"}],\"name\":\"balanceOf\",\"outputs\":[{\"internalType\":\"uint256\",\"name\":\"balance\",\"type\":\"uint256\"}],\"stateMutability\":\"view\",\"type\":\"function\"},{\"inputs\":[{\"internalType\":\"uint256\",\"name\":\"tokenId\",\"type\":\"uint256\"}],\"name\":\"getApproved\",\"outputs\":[{\"internalType\":\"address\",\"name\":\"operator\",\"type\":\"address\"}],\"stateMutability\":\"view\",\"type\":\"function\"},{\"inputs\":[{\"internalType\":\"address\",\"name\":\"owner\",\"type\":\"address\"},{\"internalType\":\"address\",\"name\":\"operator\",\"type\":\"address\"}],\"name\":\"isApprovedForAll\",\"outputs\":[{\"internalType\":\"bool\",\"name\":\"\",\"type\":\"bool\"}],\"stateMutability\":\"view\",\"type\":\"function\"},{\"inputs\":[],\"name\":\"name\",\"outputs\":[{\"internalType\":\"string\",\"name\":\"\",\"type\":\"string\"}],\"stateMutability\":\"view\",\"type\":\"function\"},{\"inputs\":[{\"internalType\":\"uint256\",\"name\":\"tokenId\",\"type\":\"uint256\"}],\"name\":\"ownerOf\",\"outputs\":[{\"internalType\":\"address\",\"name\":\"owner\",\"type\":\"address\"}],\"stateMutability\":\"view\",\"type\":\"function\"},{\"inputs\":[{\"internalType\":\"address\",\"name\":\"from\",\"type\":\"address\"},{\"internalType\":\"address\",\"name\":\"to\",\"type\":\"address\"},{\"internalType\":\"uint256\",\"name\":\"tokenId\",\"type\":\"uint256\"}],\"name\":\"safeTransferFrom\",\"outputs\":[],\"stateMutability\":\"nonpayable\",\"type\":\"function\"},{\"inputs\":[{\"internalType\":\"address\",\"name\":\"from\",\"type\":\"address\"},{\"internalType\":\"address\",\"name\":\"to\",\"type\":\"address\"},{\"internalType\":\"uint256\",\"name\":\"tokenId\",\"type\":\"uint256\"},{\"internalType\":\"bytes\",\"name\":\"data\",\"type\":\"bytes\"}],\"name\":\"safeTransferFrom\",\"outputs\":[],\"stateMutability\":\"nonpayable\",\"type\":\"function\"},{\"inputs\":[{\"internalType\":\"address\",\"name\":\"operator\",\"type\":\"address\"},{\"internalType\":\"bool\",\"name\":\"_approved\",\"type\":\"bool\"}],\"name\":\"setApprovalForAll\",\"outputs\":[],\"stateMutability\":\"nonpayable\",\"type\":\"function\"},{\"inputs\":[{\"internalType\":\"bytes4\",\"name\":\"interfaceId\",\"type\":\"bytes4\"}],\"name\":\"supportsInterface\",\"outputs\":[{\"internalType\":\"bool\",\"name\":\"\",\"type\":\"bool\"}],\"stateMutability\":\"view\",\"type\":\"function\"},{\"inputs\":[],\"name\":\"symbol\",\"outputs\":[{\"internalType\":\"string\",\"name\":\"\",\"type\":\"string\"}],\"stateMutability\":\"view\",\"type\":\"function\"},{\"inputs\":[{\"internalType\":\"uint256\",\"name\":\"tokenId\",\"type\":\"uint256\"}],\"name\":\"tokenURI\",\"outputs\":[{\"internalType\":\"string\",\"name\":\"\",\"type\":\"string\"}],\"stateMutability\":\"view\",\"type\":\"function\"},{\"inputs\":[{\"internalType\":\"address\",\"name\":\"from\",\"type\":\"address\"},{\"internalType\":\"address\",\"name\":\"to\",\"type\":\"address\"},{\"internalType\":\"uint256\",\"name\":\"tokenId\",\"type\":\"uint256\"}],\"name\":\"transferFrom\",\"outputs\":[],\"stateMutability\":\"nonpayable\",\"type\":\"function\"}],\"devdoc\":{\"details\":\"See https://eips.ethereum.org/EIPS/eip-721\",\"kind\":\"dev\",\"methods\":{\"approve(address,uint256)\":{\"details\":\"Gives permission to `to` to transfer `tokenId` token to another account. The approval is cleared when the token is transferred. Only a single account can be approved at a time, so approving the zero address clears previous approvals. Requirements: - The caller must own the token or be an approved operator. - `tokenId` must exist. Emits an {Approval} event.\"},\"balanceOf(address)\":{\"details\":\"Returns the number of tokens in ``owner``'s account.\"},\"getApproved(uint256)\":{\"details\":\"Returns the account approved for `tokenId` token. Requirements: - `tokenId` must exist.\"},\"isApprovedForAll(address,address)\":{\"details\":\"Returns if the `operator` is allowed to manage all of the assets of `owner`. See {setApprovalForAll}\"},\"name()\":{\"details\":\"Returns the token collection name.\"},\"ownerOf(uint256)\":{\"details\":\"Returns the owner of the `tokenId` token. Requirements: - `tokenId` must exist.\"},\"safeTransferFrom(address,address,uint256)\":{\"details\":\"Safely transfers `tokenId` token from `from` to `to`, checking first that contract recipients are aware of the ERC721 protocol to prevent tokens from being forever locked. Requirements: - `from` cannot be the zero address. - `to` cannot be the zero address. - `tokenId` token must exist and be owned by `from`. - If the caller is not `from`, it must be have been allowed to move this token by either {approve} or {setApprovalForAll}. - If `to` refers to a smart contract, it must implement {IERC721Receiver-onERC721Received}, which is called upon a safe transfer. Emits a {Transfer} event.\"},\"safeTransferFrom(address,address,uint256,bytes)\":{\"details\":\"Safely transfers `tokenId` token from `from` to `to`. Requirements: - `from` cannot be the zero address. - `to` cannot be the zero address. - `tokenId` token must exist and be owned by `from`. - If the caller is not `from`, it must be approved to move this token by either {approve} or {setApprovalForAll}. - If `to` refers to a smart contract, it must implement {IERC721Receiver-onERC721Received}, which is called upon a safe transfer. Emits a {Transfer} event.\"},\"setApprovalForAll(address,bool)\":{\"details\":\"Approve or remove `operator` as an operator for the caller. Operators can call {transferFrom} or {safeTransferFrom} for any token owned by the caller. Requirements: - The `operator` cannot be the caller. Emits an {ApprovalForAll} event.\"},\"supportsInterface(bytes4)\":{\"details\":\"Returns true if this contract implements the interface defined by `interfaceId`. See the corresponding https://eips.ethereum.org/EIPS/eip-165#how-interfaces-are-identified[EIP section] to learn more about how these ids are created. This function call must use less than 30 000 gas.\"},\"symbol()\":{\"details\":\"Returns the token collection symbol.\"},\"tokenURI(uint256)\":{\"details\":\"Returns the Uniform Resource Identifier (URI) for `tokenId` token.\"},\"transferFrom(address,address,uint256)\":{\"details\":\"Transfers `tokenId` token from `from` to `to`. WARNING: Usage of this method is discouraged, use {safeTransferFrom} whenever possible. Requirements: - `from` cannot be the zero address. - `to` cannot be the zero address. - `tokenId` token must be owned by `from`. - If the caller is not `from`, it must be approved to move this token by either {approve} or {setApprovalForAll}. Emits a {Transfer} event.\"}},\"title\":\"ERC-721 Non-Fungible Token Standard, optional metadata extension\",\"version\":1},\"userdoc\":{\"kind\":\"user\",\"methods\":{},\"version\":1}},\"settings\":{\"compilationTarget\":{\"@openzeppelin/contracts/token/ERC721/extensions/IERC721Metadata.sol\":\"IERC721Metadata\"},\"evmVersion\":\"london\",\"libraries\":{},\"metadata\":{\"bytecodeHash\":\"ipfs\"},\"optimizer\":{\"enabled\":false,\"runs\":200},\"remappings\":[]},\"sources\":{\"@openzeppelin/contracts/token/ERC721/IERC721.sol\":{\"keccak256\":\"0xf101e8720213560fab41104d53b3cc7ba0456ef3a98455aa7f022391783144a0\",\"license\":\"MIT\",\"urls\":[\"bzz-raw://3e7820bcf567e6892d937c3cb10db263a4042e446799bca602535868d822384e\",\"dweb:/ipfs/QmPG2oeDjKncqsEeyYGjAN7CwAJmMgHterXGGnpzhha4z7\"]},\"@openzeppelin/contracts/token/ERC721/extensions/IERC721Metadata.sol\":{\"keccak256\":\"0xd32fb7f530a914b1083d10a6bed3a586f2451952fec04fe542bcc670a82f7ba5\",\"license\":\"MIT\",\"urls\":[\"bzz-raw://af63ab940a34687c45f0ad84960b048fc5f49330c92ccb422db7822a444733b9\",\"dweb:/ipfs/QmUShaQEu8HS1GjDnsMJQ8jkZEBrecn6NuDZ3pfjY1gVck\"]},\"@openzeppelin/contracts/utils/introspection/IERC165.sol\":{\"keccak256\":\"0xa28007762d9da9db878dd421960c8cb9a10471f47ab5c1b3309bfe48e9e79ff4\",\"license\":\"MIT\",\"urls\":[\"bzz-raw://796ab6e88af7bf0e78def0f059310c903af6a312b565344e0ff524a0f26e81c6\",\"dweb:/ipfs/QmcsVgLgzWdor3UnAztUkXKNGcysm1MPneWksF72AvnwBx\"]}},\"version\":1}",
  "bytecode": "0x",
  "deployedBytecode": "0x",
  "immutableReferences": {},
  "generatedSources": [],
  "deployedGeneratedSources": [],
  "sourceMap": "",
  "deployedSourceMap": "",
  "source": "// SPDX-License-Identifier: MIT\n\npragma solidity ^0.8.0;\n\nimport \"../IERC721.sol\";\n\n/**\n * @title ERC-721 Non-Fungible Token Standard, optional metadata extension\n * @dev See https://eips.ethereum.org/EIPS/eip-721\n */\ninterface IERC721Metadata is IERC721 {\n    /**\n     * @dev Returns the token collection name.\n     */\n    function name() external view returns (string memory);\n\n    /**\n     * @dev Returns the token collection symbol.\n     */\n    function symbol() external view returns (string memory);\n\n    /**\n     * @dev Returns the Uniform Resource Identifier (URI) for `tokenId` token.\n     */\n    function tokenURI(uint256 tokenId) external view returns (string memory);\n}\n",
  "sourcePath": "@openzeppelin\\contracts\\token\\ERC721\\extensions\\IERC721Metadata.sol",
  "ast": {
    "absolutePath": "@openzeppelin/contracts/token/ERC721/extensions/IERC721Metadata.sol",
    "exportedSymbols": {
      "IERC165": [
        2824
      ],
      "IERC721": [
        1711
      ],
      "IERC721Metadata": [
        2192
      ]
    },
    "id": 2193,
    "license": "MIT",
    "nodeType": "SourceUnit",
    "nodes": [
      {
        "id": 2167,
        "literals": [
          "solidity",
          "^",
          "0.8",
          ".0"
        ],
        "nodeType": "PragmaDirective",
        "src": "33:23:13"
      },
      {
        "absolutePath": "@openzeppelin/contracts/token/ERC721/IERC721.sol",
        "file": "../IERC721.sol",
        "id": 2168,
        "nameLocation": "-1:-1:-1",
        "nodeType": "ImportDirective",
        "scope": 2193,
        "sourceUnit": 1712,
        "src": "58:24:13",
        "symbolAliases": [],
        "unitAlias": ""
      },
      {
        "abstract": false,
        "baseContracts": [
          {
            "baseName": {
              "id": 2170,
              "name": "IERC721",
              "nodeType": "IdentifierPath",
              "referencedDeclaration": 1711,
              "src": "247:7:13"
            },
            "id": 2171,
            "nodeType": "InheritanceSpecifier",
            "src": "247:7:13"
          }
        ],
        "canonicalName": "IERC721Metadata",
        "contractDependencies": [],
        "contractKind": "interface",
        "documentation": {
          "id": 2169,
          "nodeType": "StructuredDocumentation",
          "src": "84:133:13",
          "text": " @title ERC-721 Non-Fungible Token Standard, optional metadata extension\n @dev See https://eips.ethereum.org/EIPS/eip-721"
        },
        "fullyImplemented": false,
        "id": 2192,
        "linearizedBaseContracts": [
          2192,
          1711,
          2824
        ],
        "name": "IERC721Metadata",
        "nameLocation": "228:15:13",
        "nodeType": "ContractDefinition",
        "nodes": [
          {
            "documentation": {
              "id": 2172,
              "nodeType": "StructuredDocumentation",
              "src": "261:58:13",
              "text": " @dev Returns the token collection name."
            },
            "functionSelector": "06fdde03",
            "id": 2177,
            "implemented": false,
            "kind": "function",
            "modifiers": [],
            "name": "name",
            "nameLocation": "333:4:13",
            "nodeType": "FunctionDefinition",
            "parameters": {
              "id": 2173,
              "nodeType": "ParameterList",
              "parameters": [],
              "src": "337:2:13"
            },
            "returnParameters": {
              "id": 2176,
              "nodeType": "ParameterList",
              "parameters": [
                {
                  "constant": false,
                  "id": 2175,
                  "mutability": "mutable",
                  "name": "",
                  "nameLocation": "-1:-1:-1",
                  "nodeType": "VariableDeclaration",
                  "scope": 2177,
                  "src": "363:13:13",
                  "stateVariable": false,
                  "storageLocation": "memory",
                  "typeDescriptions": {
                    "typeIdentifier": "t_string_memory_ptr",
                    "typeString": "string"
                  },
                  "typeName": {
                    "id": 2174,
                    "name": "string",
                    "nodeType": "ElementaryTypeName",
                    "src": "363:6:13",
                    "typeDescriptions": {
                      "typeIdentifier": "t_string_storage_ptr",
                      "typeString": "string"
                    }
                  },
                  "visibility": "internal"
                }
              ],
              "src": "362:15:13"
            },
            "scope": 2192,
            "src": "324:54:13",
            "stateMutability": "view",
            "virtual": false,
            "visibility": "external"
          },
          {
            "documentation": {
              "id": 2178,
              "nodeType": "StructuredDocumentation",
              "src": "384:60:13",
              "text": " @dev Returns the token collection symbol."
            },
            "functionSelector": "95d89b41",
            "id": 2183,
            "implemented": false,
            "kind": "function",
            "modifiers": [],
            "name": "symbol",
            "nameLocation": "458:6:13",
            "nodeType": "FunctionDefinition",
            "parameters": {
              "id": 2179,
              "nodeType": "ParameterList",
              "parameters": [],
              "src": "464:2:13"
            },
            "returnParameters": {
              "id": 2182,
              "nodeType": "ParameterList",
              "parameters": [
                {
                  "constant": false,
                  "id": 2181,
                  "mutability": "mutable",
                  "name": "",
                  "nameLocation": "-1:-1:-1",
                  "nodeType": "VariableDeclaration",
                  "scope": 2183,
                  "src": "490:13:13",
                  "stateVariable": false,
                  "storageLocation": "memory",
                  "typeDescriptions": {
                    "typeIdentifier": "t_string_memory_ptr",
                    "typeString": "string"
                  },
                  "typeName": {
                    "id": 2180,
                    "name": "string",
                    "nodeType": "ElementaryTypeName",
                    "src": "490:6:13",
                    "typeDescriptions": {
                      "typeIdentifier": "t_string_storage_ptr",
                      "typeString": "string"
                    }
                  },
                  "visibility": "internal"
                }
              ],
              "src": "489:15:13"
            },
            "scope": 2192,
            "src": "449:56:13",
            "stateMutability": "view",
            "virtual": false,
            "visibility": "external"
          },
          {
            "documentation": {
              "id": 2184,
              "nodeType": "StructuredDocumentation",
              "src": "511:90:13",
              "text": " @dev Returns the Uniform Resource Identifier (URI) for `tokenId` token."
            },
            "functionSelector": "c87b56dd",
            "id": 2191,
            "implemented": false,
            "kind": "function",
            "modifiers": [],
            "name": "tokenURI",
            "nameLocation": "615:8:13",
            "nodeType": "FunctionDefinition",
            "parameters": {
              "id": 2187,
              "nodeType": "ParameterList",
              "parameters": [
                {
                  "constant": false,
                  "id": 2186,
                  "mutability": "mutable",
                  "name": "tokenId",
                  "nameLocation": "632:7:13",
                  "nodeType": "VariableDeclaration",
                  "scope": 2191,
                  "src": "624:15:13",
                  "stateVariable": false,
                  "storageLocation": "default",
                  "typeDescriptions": {
                    "typeIdentifier": "t_uint256",
                    "typeString": "uint256"
                  },
                  "typeName": {
                    "id": 2185,
                    "name": "uint256",
                    "nodeType": "ElementaryTypeName",
                    "src": "624:7:13",
                    "typeDescriptions": {
                      "typeIdentifier": "t_uint256",
                      "typeString": "uint256"
                    }
                  },
                  "visibility": "internal"
                }
              ],
              "src": "623:17:13"
            },
            "returnParameters": {
              "id": 2190,
              "nodeType": "ParameterList",
              "parameters": [
                {
                  "constant": false,
                  "id": 2189,
                  "mutability": "mutable",
                  "name": "",
                  "nameLocation": "-1:-1:-1",
                  "nodeType": "VariableDeclaration",
                  "scope": 2191,
                  "src": "664:13:13",
                  "stateVariable": false,
                  "storageLocation": "memory",
                  "typeDescriptions": {
                    "typeIdentifier": "t_string_memory_ptr",
                    "typeString": "string"
                  },
                  "typeName": {
                    "id": 2188,
                    "name": "string",
                    "nodeType": "ElementaryTypeName",
                    "src": "664:6:13",
                    "typeDescriptions": {
                      "typeIdentifier": "t_string_storage_ptr",
                      "typeString": "string"
                    }
                  },
                  "visibility": "internal"
                }
              ],
              "src": "663:15:13"
            },
            "scope": 2192,
            "src": "606:73:13",
            "stateMutability": "view",
            "virtual": false,
            "visibility": "external"
          }
        ],
        "scope": 2193,
        "src": "218:463:13",
        "usedErrors": []
      }
    ],
    "src": "33:649:13"
  },
  "legacyAST": {
    "absolutePath": "@openzeppelin/contracts/token/ERC721/extensions/IERC721Metadata.sol",
    "exportedSymbols": {
      "IERC165": [
        2824
      ],
      "IERC721": [
        1711
      ],
      "IERC721Metadata": [
        2192
      ]
    },
    "id": 2193,
    "license": "MIT",
    "nodeType": "SourceUnit",
    "nodes": [
      {
        "id": 2167,
        "literals": [
          "solidity",
          "^",
          "0.8",
          ".0"
        ],
        "nodeType": "PragmaDirective",
        "src": "33:23:13"
      },
      {
        "absolutePath": "@openzeppelin/contracts/token/ERC721/IERC721.sol",
        "file": "../IERC721.sol",
        "id": 2168,
        "nameLocation": "-1:-1:-1",
        "nodeType": "ImportDirective",
        "scope": 2193,
        "sourceUnit": 1712,
        "src": "58:24:13",
        "symbolAliases": [],
        "unitAlias": ""
      },
      {
        "abstract": false,
        "baseContracts": [
          {
            "baseName": {
              "id": 2170,
              "name": "IERC721",
              "nodeType": "IdentifierPath",
              "referencedDeclaration": 1711,
              "src": "247:7:13"
            },
            "id": 2171,
            "nodeType": "InheritanceSpecifier",
            "src": "247:7:13"
          }
        ],
        "canonicalName": "IERC721Metadata",
        "contractDependencies": [],
        "contractKind": "interface",
        "documentation": {
          "id": 2169,
          "nodeType": "StructuredDocumentation",
          "src": "84:133:13",
          "text": " @title ERC-721 Non-Fungible Token Standard, optional metadata extension\n @dev See https://eips.ethereum.org/EIPS/eip-721"
        },
        "fullyImplemented": false,
        "id": 2192,
        "linearizedBaseContracts": [
          2192,
          1711,
          2824
        ],
        "name": "IERC721Metadata",
        "nameLocation": "228:15:13",
        "nodeType": "ContractDefinition",
        "nodes": [
          {
            "documentation": {
              "id": 2172,
              "nodeType": "StructuredDocumentation",
              "src": "261:58:13",
              "text": " @dev Returns the token collection name."
            },
            "functionSelector": "06fdde03",
            "id": 2177,
            "implemented": false,
            "kind": "function",
            "modifiers": [],
            "name": "name",
            "nameLocation": "333:4:13",
            "nodeType": "FunctionDefinition",
            "parameters": {
              "id": 2173,
              "nodeType": "ParameterList",
              "parameters": [],
              "src": "337:2:13"
            },
            "returnParameters": {
              "id": 2176,
              "nodeType": "ParameterList",
              "parameters": [
                {
                  "constant": false,
                  "id": 2175,
                  "mutability": "mutable",
                  "name": "",
                  "nameLocation": "-1:-1:-1",
                  "nodeType": "VariableDeclaration",
                  "scope": 2177,
                  "src": "363:13:13",
                  "stateVariable": false,
                  "storageLocation": "memory",
                  "typeDescriptions": {
                    "typeIdentifier": "t_string_memory_ptr",
                    "typeString": "string"
                  },
                  "typeName": {
                    "id": 2174,
                    "name": "string",
                    "nodeType": "ElementaryTypeName",
                    "src": "363:6:13",
                    "typeDescriptions": {
                      "typeIdentifier": "t_string_storage_ptr",
                      "typeString": "string"
                    }
                  },
                  "visibility": "internal"
                }
              ],
              "src": "362:15:13"
            },
            "scope": 2192,
            "src": "324:54:13",
            "stateMutability": "view",
            "virtual": false,
            "visibility": "external"
          },
          {
            "documentation": {
              "id": 2178,
              "nodeType": "StructuredDocumentation",
              "src": "384:60:13",
              "text": " @dev Returns the token collection symbol."
            },
            "functionSelector": "95d89b41",
            "id": 2183,
            "implemented": false,
            "kind": "function",
            "modifiers": [],
            "name": "symbol",
            "nameLocation": "458:6:13",
            "nodeType": "FunctionDefinition",
            "parameters": {
              "id": 2179,
              "nodeType": "ParameterList",
              "parameters": [],
              "src": "464:2:13"
            },
            "returnParameters": {
              "id": 2182,
              "nodeType": "ParameterList",
              "parameters": [
                {
                  "constant": false,
                  "id": 2181,
                  "mutability": "mutable",
                  "name": "",
                  "nameLocation": "-1:-1:-1",
                  "nodeType": "VariableDeclaration",
                  "scope": 2183,
                  "src": "490:13:13",
                  "stateVariable": false,
                  "storageLocation": "memory",
                  "typeDescriptions": {
                    "typeIdentifier": "t_string_memory_ptr",
                    "typeString": "string"
                  },
                  "typeName": {
                    "id": 2180,
                    "name": "string",
                    "nodeType": "ElementaryTypeName",
                    "src": "490:6:13",
                    "typeDescriptions": {
                      "typeIdentifier": "t_string_storage_ptr",
                      "typeString": "string"
                    }
                  },
                  "visibility": "internal"
                }
              ],
              "src": "489:15:13"
            },
            "scope": 2192,
            "src": "449:56:13",
            "stateMutability": "view",
            "virtual": false,
            "visibility": "external"
          },
          {
            "documentation": {
              "id": 2184,
              "nodeType": "StructuredDocumentation",
              "src": "511:90:13",
              "text": " @dev Returns the Uniform Resource Identifier (URI) for `tokenId` token."
            },
            "functionSelector": "c87b56dd",
            "id": 2191,
            "implemented": false,
            "kind": "function",
            "modifiers": [],
            "name": "tokenURI",
            "nameLocation": "615:8:13",
            "nodeType": "FunctionDefinition",
            "parameters": {
              "id": 2187,
              "nodeType": "ParameterList",
              "parameters": [
                {
                  "constant": false,
                  "id": 2186,
                  "mutability": "mutable",
                  "name": "tokenId",
                  "nameLocation": "632:7:13",
                  "nodeType": "VariableDeclaration",
                  "scope": 2191,
                  "src": "624:15:13",
                  "stateVariable": false,
                  "storageLocation": "default",
                  "typeDescriptions": {
                    "typeIdentifier": "t_uint256",
                    "typeString": "uint256"
                  },
                  "typeName": {
                    "id": 2185,
                    "name": "uint256",
                    "nodeType": "ElementaryTypeName",
                    "src": "624:7:13",
                    "typeDescriptions": {
                      "typeIdentifier": "t_uint256",
                      "typeString": "uint256"
                    }
                  },
                  "visibility": "internal"
                }
              ],
              "src": "623:17:13"
            },
            "returnParameters": {
              "id": 2190,
              "nodeType": "ParameterList",
              "parameters": [
                {
                  "constant": false,
                  "id": 2189,
                  "mutability": "mutable",
                  "name": "",
                  "nameLocation": "-1:-1:-1",
                  "nodeType": "VariableDeclaration",
                  "scope": 2191,
                  "src": "664:13:13",
                  "stateVariable": false,
                  "storageLocation": "memory",
                  "typeDescriptions": {
                    "typeIdentifier": "t_string_memory_ptr",
                    "typeString": "string"
                  },
                  "typeName": {
                    "id": 2188,
                    "name": "string",
                    "nodeType": "ElementaryTypeName",
                    "src": "664:6:13",
                    "typeDescriptions": {
                      "typeIdentifier": "t_string_storage_ptr",
                      "typeString": "string"
                    }
                  },
                  "visibility": "internal"
                }
              ],
              "src": "663:15:13"
            },
            "scope": 2192,
            "src": "606:73:13",
            "stateMutability": "view",
            "virtual": false,
            "visibility": "external"
          }
        ],
        "scope": 2193,
        "src": "218:463:13",
        "usedErrors": []
      }
    ],
    "src": "33:649:13"
  },
  "compiler": {
    "name": "solc",
    "version": "0.8.10+commit.fc410830.Emscripten.clang"
  },
  "networks": {},
  "schemaVersion": "3.4.3",
  "updatedAt": "2021-11-26T00:42:38.637Z",
  "devdoc": {
    "details": "See https://eips.ethereum.org/EIPS/eip-721",
    "kind": "dev",
    "methods": {
      "approve(address,uint256)": {
        "details": "Gives permission to `to` to transfer `tokenId` token to another account. The approval is cleared when the token is transferred. Only a single account can be approved at a time, so approving the zero address clears previous approvals. Requirements: - The caller must own the token or be an approved operator. - `tokenId` must exist. Emits an {Approval} event."
      },
      "balanceOf(address)": {
        "details": "Returns the number of tokens in ``owner``'s account."
      },
      "getApproved(uint256)": {
        "details": "Returns the account approved for `tokenId` token. Requirements: - `tokenId` must exist."
      },
      "isApprovedForAll(address,address)": {
        "details": "Returns if the `operator` is allowed to manage all of the assets of `owner`. See {setApprovalForAll}"
      },
      "name()": {
        "details": "Returns the token collection name."
      },
      "ownerOf(uint256)": {
        "details": "Returns the owner of the `tokenId` token. Requirements: - `tokenId` must exist."
      },
      "safeTransferFrom(address,address,uint256)": {
        "details": "Safely transfers `tokenId` token from `from` to `to`, checking first that contract recipients are aware of the ERC721 protocol to prevent tokens from being forever locked. Requirements: - `from` cannot be the zero address. - `to` cannot be the zero address. - `tokenId` token must exist and be owned by `from`. - If the caller is not `from`, it must be have been allowed to move this token by either {approve} or {setApprovalForAll}. - If `to` refers to a smart contract, it must implement {IERC721Receiver-onERC721Received}, which is called upon a safe transfer. Emits a {Transfer} event."
      },
      "safeTransferFrom(address,address,uint256,bytes)": {
        "details": "Safely transfers `tokenId` token from `from` to `to`. Requirements: - `from` cannot be the zero address. - `to` cannot be the zero address. - `tokenId` token must exist and be owned by `from`. - If the caller is not `from`, it must be approved to move this token by either {approve} or {setApprovalForAll}. - If `to` refers to a smart contract, it must implement {IERC721Receiver-onERC721Received}, which is called upon a safe transfer. Emits a {Transfer} event."
      },
      "setApprovalForAll(address,bool)": {
        "details": "Approve or remove `operator` as an operator for the caller. Operators can call {transferFrom} or {safeTransferFrom} for any token owned by the caller. Requirements: - The `operator` cannot be the caller. Emits an {ApprovalForAll} event."
      },
      "supportsInterface(bytes4)": {
        "details": "Returns true if this contract implements the interface defined by `interfaceId`. See the corresponding https://eips.ethereum.org/EIPS/eip-165#how-interfaces-are-identified[EIP section] to learn more about how these ids are created. This function call must use less than 30 000 gas."
      },
      "symbol()": {
        "details": "Returns the token collection symbol."
      },
      "tokenURI(uint256)": {
        "details": "Returns the Uniform Resource Identifier (URI) for `tokenId` token."
      },
      "transferFrom(address,address,uint256)": {
        "details": "Transfers `tokenId` token from `from` to `to`. WARNING: Usage of this method is discouraged, use {safeTransferFrom} whenever possible. Requirements: - `from` cannot be the zero address. - `to` cannot be the zero address. - `tokenId` token must be owned by `from`. - If the caller is not `from`, it must be approved to move this token by either {approve} or {setApprovalForAll}. Emits a {Transfer} event."
      }
    },
    "title": "ERC-721 Non-Fungible Token Standard, optional metadata extension",
    "version": 1
  },
  "userdoc": {
    "kind": "user",
    "methods": {},
    "version": 1
  }
}